Data Science Final: Exploring the geospatial distribution and accessibility of water points across Rohingya refugee camps in Bangladesh
…
# we only want to see latrines
latrine_map <- tubewells_sf %>%
  filter(`Type of Facilities` == "Latrine") 
  
print(latrine_map)

Simple feature collection with 35498 features and 22 fields
Geometry type: POINT
Dimension:     XY
Bounding box:  xmin: 92.13001 ymin: 20.93068 xmax: 92.2639 ymax: 21.22278
Geodetic CRS:  WGS 84
# A tibble: 35,498 × 23
   `SL No` Agency `Type of Beneficiaries` District    Upazila Union        AFA  
 *   <dbl> <chr>  <chr>                   <chr>       <chr>   <chr>        <chr>
 1       1 NGOF   Rohingya                Cox's Bazar Ukhia   Palong Khali IOM  
 2       2 NGOF   Rohingya                Cox's Bazar Ukhia   Palong Khali IOM  
 3       3 NGOF   Rohingya                Cox's Bazar Ukhia   Palong Khali IOM  
 4       4 NGOF   Rohingya                Cox's Bazar Ukhia   Palong Khali IOM  
 5       5 NGOF   Rohingya                Cox's Bazar Ukhia   Palong Khali IOM  
 6       6 NGOF   Rohingya                Cox's Bazar Ukhia   Palong Khali IOM  
 7       7 NGOF   Rohingya                Cox's Bazar Ukhia   Palong Khali IOM  
 8       8 NGOF   Rohingya                Cox's Bazar Ukhia   Palong Khali IOM  
 9       9 NGOF   Rohingya                Cox's Bazar Ukhia   Palong Khali IOM  
10      10 NGOF   Rohingya                Cox's Bazar Ukhia   Palong Khali IOM  
# ℹ 35,488 more rows
# ℹ 16 more variables: `Location/ Camp Name` <chr>, `Block Name` <chr>,
#   `Sub-Block Name` <chr>, `Sub Sector` <chr>, `Type of Facilities` <chr>,
#   `Sub Type of Facilities` <chr>, `# of Tube-wells` <lgl>,
#   `# of Latrines Cubicles` <dbl>, `# of Latrines Cubicles Female` <dbl>,
#   `# of Bathing Cubicles` <lgl>, `# of Bathing Cubicles Female` <lgl>,
#   `Depth of \r\nTubewell (Feet)` <lgl>, Facilities_Sector_ID <chr>, …
…
# Tubewells per Primary Health Center
   
primary_center <- health_sf %>% 
  filter(Type == "Primary Health Center")

print(primary_center)

Simple feature collection with 48 features and 8 fields
Geometry type: POINT
Dimension:     XY
Bounding box:  xmin: 92.04922 ymin: 20.97099 xmax: 92.2438 ymax: 21.2361
Geodetic CRS:  WGS 84
# A tibble: 48 × 9
   `Old facility code` `mWater Code` Partner Type  Zone  Functionality `Camp ID`
 * <chr>               <chr>         <chr>   <chr> <chr> <chr>         <chr>    
 1 HF_218              22327824      BRAC    Prim… JJ (… Functional    Camp 9   
 2 HF_217              22327817      BRAC    Prim… KMS … Functional    Camp 2W  
 3 HF_216              22327800      BRAC    Prim… Moyn… Functional    Camp 16  
 4 <NA>                22032188      BRAC    Prim… II (… Functional    Camp 8E  
 5 HF_255              22328193      CZM     Prim… NN (… Functional    Camp 11  
 6 HF_254              22328186      Coast … Prim… BMS … Functional    Camp 9   
 7 HF_119              22326830      GK/OBA… Prim… UU (… Functional    Camp 4   
 8 HF_219              22327831      GK/RTMI Prim… OO (… Functional    Camp 4   
 9 HF_220              22327848      Global… Prim… Moyn… Functional    Camp 16  
10 HF_223              22327879      IOM     Prim… BMS … Functional    Camp 9   
# ℹ 38 more rows
# ℹ 2 more variables: `Revisit?` <chr>, geometry <POINT [°]>
…
